\relax 
\citation{polyphen}
\citation{sift}
\citation{provean}
\citation{survey}
\citation{mdl}
\citation{formallanguage}
\citation{useofformallanguage}
\citation{mdlcfg}
\@writefile{toc}{\contentsline {chapter}{\numberline {1}Introduction}{1}}
\@writefile{lof}{\addvspace {10\p@ }}
\@writefile{lot}{\addvspace {10\p@ }}
\newlabel{chp:introduction}{{1}{1}}
\@writefile{toc}{\contentsline {chapter}{\numberline {2}Background}{3}}
\@writefile{lof}{\addvspace {10\p@ }}
\@writefile{lot}{\addvspace {10\p@ }}
\newlabel{chp:background}{{2}{3}}
\@writefile{toc}{\contentsline {section}{\numberline {2.1}Computational Background}{3}}
\@writefile{toc}{\contentsline {subsection}{\numberline {2.1.1}Formal Language Theory and Non Deterministic Finite Automaton}{3}}
\citation{Rabin_1959}
\citation{formallanguage}
\citation{formallanguage}
\citation{mdl}
\citation{kraft}
\@writefile{lof}{\contentsline {figure}{\numberline {2.1}{\ignorespaces Protein structure. Taken from\nobreakspace  {}\cite  {formallanguage}}}{5}}
\newlabel{deps-figure}{{2.1}{5}}
\@writefile{toc}{\contentsline {subsection}{\numberline {2.1.2}Inductive Inference Theory and The Minimum Description Length Principle}{5}}
\@writefile{lof}{\contentsline {figure}{\numberline {2.2}{\ignorespaces Nested dependencies. Taken from http://lewisdartnell.com/}}{6}}
\newlabel{nested-deps}{{2.2}{6}}
\@writefile{lof}{\contentsline {figure}{\numberline {2.3}{\ignorespaces Cross dependencies}}{6}}
\newlabel{cross-deps}{{2.3}{6}}
\citation{Kolmogorov_1968}
\citation{Li_1997}
\citation{Gordon_1984}
\@writefile{toc}{\contentsline {subsection}{\numberline {2.1.3}Supervised Learning and Decision Trees}{8}}
\@writefile{toc}{\contentsline {section}{\numberline {2.2}Biological Background}{9}}
\@writefile{toc}{\contentsline {subsection}{\numberline {2.2.1}Secondary Structure}{9}}
\@writefile{toc}{\contentsline {subsection}{\numberline {2.2.2}Structural Classification of Proteins (SCOP)}{9}}
\citation{incompressible}
\citation{compressible}
\citation{sift}
\citation{polyphen}
\citation{provean}
\@writefile{toc}{\contentsline {subsection}{\numberline {2.2.3}Protein compressibility}{10}}
\@writefile{toc}{\contentsline {subsection}{\numberline {2.2.4}Mutation types}{10}}
\@writefile{toc}{\contentsline {subsection}{\numberline {2.2.5}Mutation Analysis}{10}}
\@writefile{toc}{\contentsline {subsection}{\numberline {2.2.6}The Uniprot HUMSAVAR database}{12}}
\citation{formallanguage}
\citation{recentlinguistic}
\citation{neuralnet}
\@writefile{toc}{\contentsline {chapter}{\numberline {3}Algorithmic Approach}{13}}
\@writefile{lof}{\addvspace {10\p@ }}
\@writefile{lot}{\addvspace {10\p@ }}
\newlabel{chp:algorithm}{{3}{13}}
\@writefile{toc}{\contentsline {section}{\numberline {3.1}Model}{13}}
\newlabel{sec:nfa}{{3.1}{13}}
\citation{mdl}
\@writefile{toc}{\contentsline {section}{\numberline {3.2}Grammar Induction}{14}}
\citation{scop}
\citation{mla18ss}
\citation{sspro}
\citation{cooling}
\@writefile{lof}{\contentsline {figure}{\numberline {3.1}{\ignorespaces Box plots of dScore values by structural annotation of mutation, showing little correlation between structural annotation change and evolutionary conservation. C - random coil, H - alpha helix, E - beta sheet. Missing columns (H$\rightarrow $C, H$\rightarrow $E, E$\rightarrow $H, E$\rightarrow $C) represent transformations which do not occur.}}{17}}
\newlabel{fig:dscore_vs_structure}{{3.1}{17}}
\citation{word2vec}
\citation{gensim}
\@writefile{lot}{\contentsline {table}{\numberline {3.1}{\ignorespaces Alphabet conversion table}}{18}}
\newlabel{alphabet_conversion}{{3.1}{18}}
\@writefile{toc}{\contentsline {section}{\numberline {3.3}Supervised Learning Features}{18}}
\newlabel{features}{{3.3}{18}}
\citation{Gordon_1984}
\citation{sklearn}
\citation{incompressible}
\citation{mla18ss}
\@writefile{toc}{\contentsline {chapter}{\numberline {4}Experimental Results}{20}}
\@writefile{lof}{\addvspace {10\p@ }}
\@writefile{lot}{\addvspace {10\p@ }}
\newlabel{chp:results}{{4}{20}}
\@writefile{lof}{\contentsline {figure}{\numberline {4.1}{\ignorespaces The NFA trained on protein sequences. ``.'' and ``@'' represent wild card and epsilon transitions respectively.}}{21}}
\newlabel{nfa-figure}{{4.1}{21}}
\@writefile{lof}{\contentsline {figure}{\numberline {4.2}{\ignorespaces Comparison of receiver operating characteristic curves for various methods on HUMSAVAR.}}{23}}
\newlabel{roc-figure}{{4.2}{23}}
\@writefile{lof}{\contentsline {figure}{\numberline {4.3}{\ignorespaces Performance of the two features separately and combined.}}{24}}
\newlabel{broken-down-roc-figure}{{4.3}{24}}
\@writefile{toc}{\contentsline {chapter}{\numberline {5}Conclusions}{25}}
\@writefile{lof}{\addvspace {10\p@ }}
\@writefile{lot}{\addvspace {10\p@ }}
\newlabel{chp:conclusions}{{5}{25}}
\bibstyle{splncs}
\bibdata{refs}
\bibcite{polyphen}{1}
\bibcite{sift}{2}
\bibcite{provean}{3}
\bibcite{survey}{4}
\bibcite{mdl}{5}
\bibcite{formallanguage}{6}
\bibcite{useofformallanguage}{7}
\bibcite{mdlcfg}{8}
\bibcite{Rabin_1959}{9}
\bibcite{kraft}{10}
\bibcite{Kolmogorov_1968}{11}
\bibcite{Li_1997}{12}
\bibcite{Gordon_1984}{13}
\bibcite{incompressible}{14}
\bibcite{compressible}{15}
\bibcite{recentlinguistic}{16}
\bibcite{neuralnet}{17}
\bibcite{scop}{18}
\bibcite{mla18ss}{19}
\bibcite{sspro}{20}
\bibcite{cooling}{21}
\bibcite{word2vec}{22}
\bibcite{gensim}{23}
\bibcite{sklearn}{24}
