\relax 
\bibstyle{ws-procs11x85}
\citation{polyphen}
\citation{sift}
\citation{provean}
\citation{survey}
\citation{formallanguage}
\citation{useofformallanguage}
\citation{mdlcfg}
\citation{mdl}
\@writefile{toc}{\contentsline {section}{\numberline {1}Introduction}{}}
\citation{formallanguage,recentlinguistic}
\citation{neuralnet}
\citation{mdl}
\@writefile{toc}{\contentsline {section}{\numberline {2}Methods}{}}
\@writefile{toc}{\contentsline {subsection}{\numberline {2.1}Algorithmic approach}{}}
\@writefile{toc}{\contentsline {subsection}{\numberline {2.2}Model}{}}
\newlabel{sec:nfa}{{2.2}{}}
\citation{scop}
\@writefile{toc}{\contentsline {subsection}{\numberline {2.3}Grammar Induction}{}}
\citation{mla18ss}
\citation{sspro}
\citation{cooling}
\@writefile{lot}{\contentsline {table}{\numberline {1}{\ignorespaces Alphabet conversion table}}{}}
\newlabel{alphabet_conversion}{{1}{}}
\@writefile{toc}{\contentsline {subsection}{\numberline {2.4}Supervised Learning Features}{}}
\newlabel{features}{{2.4}{}}
\citation{word2vec}
\citation{gensim}
\citation{Gordon_1984}
\citation{sklearn}
\citation{incompressible}
\citation{mla18ss}
\@writefile{toc}{\contentsline {section}{\numberline {3}Results}{}}
\@writefile{lof}{\contentsline {figure}{\numberline {1}{\ignorespaces The NFA trained on protein sequences. ``.'' and ``@'' represent wild card and epsilon transitions respectively.}}{}}
\newlabel{nfa-figure}{{1}{}}
\@writefile{lof}{\contentsline {figure}{\numberline {2}{\ignorespaces Comparison of receiver operating characteristic curves for various methods}}{}}
\newlabel{roc-figure}{{2}{}}
\@writefile{toc}{\contentsline {section}{\numberline {4}Conclusions}{}}
\bibdata{refs}
\bibcite{polyphen}{1}
\bibcite{sift}{2}
\bibcite{provean}{3}
\bibcite{survey}{4}
\bibcite{formallanguage}{5}
\bibcite{useofformallanguage}{6}
\bibcite{mdlcfg}{7}
\bibcite{mdl}{8}
\bibcite{recentlinguistic}{9}
\bibcite{neuralnet}{10}
\bibcite{scop}{11}
\bibcite{mla18ss}{12}
\bibcite{sspro}{13}
\bibcite{cooling}{14}
\bibcite{word2vec}{15}
\bibcite{gensim}{16}
\bibcite{Gordon_1984}{17}
\bibcite{sklearn}{18}
\bibcite{incompressible}{19}
\newlabel{eof}{{4}{}}
