\relax 
\bibstyle{splncs}
\citation{polyphen}
\citation{sift}
\citation{provean}
\citation{survey}
\@writefile{toc}{\contentsline {title}{Mixed Supervision Machine Learning for Predicting Harmful Mutations}{1}}
\@writefile{toc}{\authcount {2}}
\@writefile{toc}{\contentsline {author}{ Uri Valveski \and Roded Sharan\unskip \ \ignorespaces  {\tt  uri.valevski@gmail.com}, {\tt  roded@post.tau.ac.il}\unskip \ \ignorespaces  }{1}}
\@writefile{toc}{\contentsline {section}{\numberline {1}Introduction}{1}}
\citation{mdl}
\citation{formallanguage}
\citation{useofformallanguage}
\citation{mdlcfg}
\citation{word2vec}
\citation{scop}
\citation{mla18ss}
\citation{sspro}
\@writefile{toc}{\contentsline {section}{\numberline {2}Methods}{2}}
\@writefile{toc}{\contentsline {subsection}{\numberline {2.1}Data}{2}}
\newlabel{scop}{{2.1}{2}}
\@writefile{toc}{\contentsline {subsubsection}{Structural Classification of Proteins (SCOP)}{2}}
\newlabel{mla18ss}{{2.1}{2}}
\@writefile{toc}{\contentsline {subsubsection}{Multilevel Alphabet}{2}}
\@writefile{lof}{\contentsline {figure}{\numberline {1}{\ignorespaces Box plots of dScore values by structural annotation of mutation, showing little correlation between structural annotation change and evolutionary conservation. C - random coil, H - alpha helix, E - beta sheet. Missing columns (H$\rightarrow $C, H$\rightarrow $E, E$\rightarrow $H, E$\rightarrow $C) represent transformations which do not occur.}}{3}}
\newlabel{fig:dscore_vs_structure}{{1}{3}}
\@writefile{lot}{\contentsline {table}{\numberline {1}{\ignorespaces Alphabet conversion table}}{3}}
\newlabel{alphabet_conversion}{{1}{3}}
\citation{formallanguage,recentlinguistic}
\citation{neuralnet}
\citation{mdl}
\@writefile{toc}{\contentsline {subsection}{\numberline {2.2}NFA}{4}}
\newlabel{sec:nfa}{{2.2}{4}}
\@writefile{toc}{\contentsline {subsubsection}{Model}{4}}
\@writefile{toc}{\contentsline {subsubsection}{Grammar Induction}{4}}
\citation{cooling}
\citation{word2vec}
\citation{gensim}
\citation{Gordon_1984}
\citation{sklearn}
\@writefile{toc}{\contentsline {subsection}{\numberline {2.3}Word2Vec}{6}}
\citation{incompressible}
\citation{mla18ss}
\@writefile{lof}{\contentsline {figure}{\numberline {2}{\ignorespaces PCA was used to project the vector representations of the various amino acids onto a plane.}}{7}}
\newlabel{w2v-pca}{{2}{7}}
\@writefile{toc}{\contentsline {subsection}{\numberline {2.4}Supervised Learning}{7}}
\@writefile{toc}{\contentsline {section}{\numberline {3}Results}{7}}
\@writefile{lof}{\contentsline {figure}{\numberline {3}{\ignorespaces The NFA trained on protein sequences. ``.'' and ``@'' represent wild card and epsilon transitions respectively.}}{8}}
\newlabel{nfa-figure}{{3}{8}}
\@writefile{lof}{\contentsline {figure}{\numberline {4}{\ignorespaces Performance of the two feature types separately and combined on the HUMSAVAR data set.}}{10}}
\newlabel{broken-down-roc-figure}{{4}{10}}
\bibdata{refs}
\bibcite{polyphen}{1}
\bibcite{sift}{2}
\bibcite{provean}{3}
\bibcite{survey}{4}
\bibcite{mdl}{5}
\bibcite{formallanguage}{6}
\bibcite{useofformallanguage}{7}
\bibcite{mdlcfg}{8}
\bibcite{recentlinguistic}{9}
\bibcite{neuralnet}{10}
\bibcite{scop}{11}
\bibcite{mla18ss}{12}
\bibcite{sspro}{13}
\bibcite{cooling}{14}
\bibcite{word2vec}{15}
\bibcite{gensim}{16}
\bibcite{Gordon_1984}{17}
\bibcite{sklearn}{18}
\bibcite{incompressible}{19}
